%YAML 1.1
%TAG !u! tag:unity3d.com,2011:
--- !u!114 &11400000
MonoBehaviour:
  m_ObjectHideFlags: 0
  m_CorrespondingSourceObject: {fileID: 0}
  m_PrefabInstance: {fileID: 0}
  m_PrefabAsset: {fileID: 0}
  m_GameObject: {fileID: 0}
  m_Enabled: 1
  m_EditorHideFlags: 0
  m_Script: {fileID: 11500000, guid: 484e3ed532f04489b83e3a2bb4725ea8, type: 3}
  m_Name: 16
  m_EditorClassIdentifier: 
  Color: {r: 1, g: 0.41960785, b: 0.20392157, a: 1}
